<svg width="30" height="38" viewBox="0 0 30 38" fill="none" xmlns="http://www.w3.org/2000/svg">
    <path fill-rule="evenodd" clip-rule="evenodd" d="M15.001 22.1043C11.2747 22.1043 8.22508 19.0594 8.22508 15.3468V11.9343H21.7749V15.3468C21.7749 19.0595 18.7252 22.1043 15.001 22.1043ZM7.08508 15.3468C7.08508 19.6916 10.6476 23.2443 15.001 23.2443C19.3524 23.2443 22.9149 19.6915 22.9149 15.3468V11.3643C22.9149 11.0495 22.6597 10.7943 22.3449 10.7943H7.65508C7.34028 10.7943 7.08508 11.0495 7.08508 11.3643V15.3468Z" fill="#9D7E6C"/>
    <path fill-rule="evenodd" clip-rule="evenodd" d="M0.751885 37.8279C1.06669 37.8279 1.32188 37.5727 1.32188 37.2579V33.1597C1.32188 31.5178 1.77539 30.2747 2.48677 29.3082C3.20384 28.334 4.20761 27.6078 5.35412 27.0487C7.1487 26.1737 9.18524 25.7496 10.8831 25.396C11.3857 25.2913 11.8586 25.1928 12.2868 25.0907C12.5435 25.0294 12.7245 24.8001 12.7245 24.5362V22.0979C12.7245 21.7831 12.4693 21.5279 12.1545 21.5279C11.8397 21.5279 11.5845 21.7831 11.5845 22.0979V24.0814C11.3225 24.1387 11.0397 24.1974 10.7406 24.2595C9.03267 24.614 6.79261 25.079 4.85448 26.0241C3.59996 26.6358 2.42752 27.4656 1.56865 28.6325C0.704078 29.8071 0.181885 31.2904 0.181885 33.1597V37.2579C0.181885 37.5727 0.437082 37.8279 0.751885 37.8279ZM29.2479 37.8279C29.5627 37.8279 29.8179 37.5727 29.8179 37.2579V33.1597C29.8179 31.2904 29.2958 29.8071 28.4312 28.6325C27.5723 27.4656 26.3999 26.6358 25.1453 26.0241C23.2072 25.079 20.9672 24.614 19.2593 24.2595C18.9601 24.1974 18.6773 24.1387 18.4153 24.0814V22.0979C18.4153 21.7831 18.1601 21.5279 17.8453 21.5279C17.5305 21.5279 17.2753 21.7831 17.2753 22.0979V24.5362C17.2753 24.8001 17.4564 25.0294 17.713 25.0907C18.1412 25.1928 18.6141 25.2913 19.1167 25.396C20.8146 25.7496 22.8511 26.1737 24.6457 27.0487C25.7922 27.6078 26.796 28.334 27.5131 29.3082C28.2244 30.2747 28.6779 31.5178 28.6779 33.1597V37.2579C28.6779 37.5727 28.9331 37.8279 29.2479 37.8279ZM4.92997 37.05C4.92997 37.3648 5.18517 37.62 5.49997 37.62H24.025C24.3398 37.62 24.595 37.3648 24.595 37.05C24.595 36.7351 24.3398 36.48 24.025 36.48H5.49997C5.18517 36.48 4.92997 36.7351 4.92997 37.05Z" fill="#9D7E6C"/>
    <path fill-rule="evenodd" clip-rule="evenodd" d="M21.7748 15.1154C21.7748 15.4302 22.03 15.6854 22.3448 15.6854H23.5277C24.8748 15.6854 25.9763 14.5873 25.9763 13.2388C25.9763 11.892 24.8744 10.7943 23.5277 10.7943H22.3448C22.03 10.7943 21.7748 11.0495 21.7748 11.3643C21.7748 11.6791 22.03 11.9343 22.3448 11.9343H23.5277C24.2472 11.9343 24.8363 12.524 24.8363 13.2388C24.8363 13.9562 24.2468 14.5454 23.5277 14.5454H22.3448C22.03 14.5454 21.7748 14.8006 21.7748 15.1154Z" fill="#9D7E6C"/>
    <path fill-rule="evenodd" clip-rule="evenodd" d="M6.47218 14.5454C5.7531 14.5454 5.16356 13.9562 5.16356 13.2388C5.16356 12.524 5.75267 11.9343 6.47218 11.9343H7.65507C7.96988 11.9343 8.22507 11.6791 8.22507 11.3643C8.22507 11.0495 7.96988 10.7943 7.65507 10.7943H6.47218C5.12544 10.7943 4.02356 11.892 4.02356 13.2388C4.02356 14.5873 5.12502 15.6854 6.47218 15.6854H7.65507C7.96988 15.6854 8.22507 15.4302 8.22507 15.1154C8.22507 14.8006 7.96988 14.5454 7.65507 14.5454H6.47218Z" fill="#9D7E6C"/>
    <path fill-rule="evenodd" clip-rule="evenodd" d="M11.5845 24.5362C11.5845 26.4129 13.1204 27.9463 15.0009 27.9463C16.8796 27.9463 18.4153 26.4127 18.4153 24.5362C18.4153 24.2214 18.1601 23.9662 17.8453 23.9662C17.5304 23.9662 17.2753 24.2214 17.2753 24.5362C17.2753 25.7818 16.2513 26.8063 15.0009 26.8063C13.7482 26.8063 12.7245 25.7815 12.7245 24.5362C12.7245 24.2214 12.4693 23.9662 12.1545 23.9662C11.8397 23.9662 11.5845 24.2214 11.5845 24.5362Z" fill="#9D7E6C"/>
    <path fill-rule="evenodd" clip-rule="evenodd" d="M12.6508 5.29255C12.6969 5.56707 12.9345 5.76813 13.2129 5.76813H16.7868C17.0652 5.76813 17.3028 5.56707 17.349 5.29255L18.0974 0.836695C18.1252 0.671332 18.0788 0.502127 17.9705 0.374114C17.8622 0.246101 17.703 0.17227 17.5353 0.17227H12.4644C12.2967 0.17227 12.1376 0.246101 12.0293 0.374114C11.921 0.502127 11.8745 0.671332 11.9023 0.836695L12.6508 5.29255ZM13.6951 4.62813L13.1381 1.31227H16.8616L16.3046 4.62813H13.6951Z" fill="#9D7E6C"/>
    <path fill-rule="evenodd" clip-rule="evenodd" d="M5.90222 11.3644C5.90222 11.6792 6.15742 11.9344 6.47222 11.9344H23.5277C23.8425 11.9344 24.0977 11.6792 24.0977 11.3644V10.0978C24.0977 6.97021 22.4918 4.20141 20.0684 2.56868C19.8073 2.39278 19.4531 2.46183 19.2772 2.72291C19.1013 2.98399 19.1703 3.33822 19.4314 3.51412C21.5572 4.94634 22.9577 7.36929 22.9577 10.0978V10.7944H7.04222V10.0978C7.04222 7.36929 8.44272 4.94633 10.5685 3.51412C10.8296 3.33822 10.8986 2.98398 10.7227 2.72291C10.5468 2.46183 10.1926 2.39278 9.93149 2.56868C7.50812 4.20142 5.90222 6.97022 5.90222 10.0978V11.3644Z" fill="#9D7E6C"/>
    <path fill-rule="evenodd" clip-rule="evenodd" d="M5.2282 34.9778C5.54301 34.9778 5.7982 34.7226 5.7982 34.4078V29.3253C5.7982 29.0105 5.54301 28.7553 5.2282 28.7553C4.9134 28.7553 4.6582 29.0105 4.6582 29.3253V34.4078C4.6582 34.7226 4.9134 34.9778 5.2282 34.9778Z" fill="#9D7E6C"/>
    <path fill-rule="evenodd" clip-rule="evenodd" d="M24.7717 34.9778C25.0865 34.9778 25.3417 34.7226 25.3417 34.4078V29.3279C25.3417 29.0131 25.0865 28.7579 24.7717 28.7579C24.4569 28.7579 24.2017 29.0131 24.2017 29.3279V34.4078C24.2017 34.7226 24.4569 34.9778 24.7717 34.9778Z" fill="#9D7E6C"/>
    <path fill-rule="evenodd" clip-rule="evenodd" d="M8.41553 31.9141C8.41553 32.2289 8.67073 32.4841 8.98553 32.4841H21.0144C21.3292 32.4841 21.5844 32.2289 21.5844 31.9141V25.2283C21.5844 24.9135 21.3292 24.6583 21.0144 24.6583C20.6996 24.6583 20.4444 24.9135 20.4444 25.2283V31.3441H9.55553V25.2283C9.55553 24.9135 9.30033 24.6583 8.98553 24.6583C8.67073 24.6583 8.41553 24.9135 8.41553 25.2283V31.9141Z" fill="#9D7E6C"/>
    <path fill-rule="evenodd" clip-rule="evenodd" d="M11.7111 8.28016C11.7111 8.59496 11.9663 8.85016 12.2811 8.85016H17.7188C18.0336 8.85016 18.2888 8.59496 18.2888 8.28016C18.2888 7.96536 18.0336 7.71016 17.7188 7.71016H12.2811C11.9663 7.71016 11.7111 7.96536 11.7111 8.28016Z" fill="#9D7E6C"/>
</svg>
