<svg width="18" height="18" viewBox="0 0 18 18" fill="none" xmlns="http://www.w3.org/2000/svg">
    <path d="M7 14.5355C7 13.6019 7.75767 12.8435 8.69226 12.8435C9.62685 12.8435 10.3845 13.6019 10.3845 14.5355C10.3845 15.4701 9.62685 16.2278 8.69226 16.2278C7.75767 16.2278 7 15.4701 7 14.5355Z" fill="#EA756E"/>
    <path d="M9.60854 10.31C9.56882 10.7865 9.17045 11.1531 8.69226 11.1531C8.21407 11.1531 7.81571 10.7865 7.77599 10.31L7.14056 2.68641C7.0649 1.7786 7.7813 1 8.69226 1C9.60322 1 10.3196 1.7786 10.244 2.68641L9.60854 10.31Z" fill="#EA756E"/>
</svg>
