<svg width="13" height="10" viewBox="0 0 13 10" fill="none" xmlns="http://www.w3.org/2000/svg">
    <rect width="13" height="2" rx="1" fill="#9D7E6C"/>
    <rect y="4" width="13" height="2" rx="1" fill="#9D7E6C"/>
    <rect y="8" width="13" height="2" rx="1" fill="#9D7E6C"/>
</svg>
