<svg width="34" height="34" viewBox="0 0 34 34" fill="none" xmlns="http://www.w3.org/2000/svg">
    <path d="M9.76e-05 17.0001C0.000151503 26.3889 7.61127 34 17 34C26.3889 34 34 26.3888 34 17C34 7.61119 26.3888 1.29928e-05 17 2.90203e-05C7.61118 4.50478e-05 4.36972e-05 7.61127 9.76e-05 17.0001Z" fill="#769FCD"/>
    <path d="M17.8314 22.9231C11.4712 22.9231 7.84348 18.4763 7.69232 11.0769H10.8782C10.9829 16.5079 13.3316 18.8083 15.192 19.2826V11.0769H18.1918V15.7608C20.0289 15.5592 21.9591 13.4248 22.6102 11.0769H25.6101C25.3647 12.2946 24.8756 13.4475 24.1734 14.4636C23.4711 15.4797 22.5709 16.3371 21.5289 16.9822C22.692 17.5716 23.7193 18.4059 24.5431 19.4299C25.3668 20.454 25.9683 21.6445 26.3077 22.9231H23.0055C22.7008 21.8126 22.0815 20.8185 21.2252 20.0654C20.3689 19.3124 19.3137 18.8338 18.1918 18.6897V22.9231H17.8314Z" fill="white"/>
</svg>
